r2_live.tga 0.000000000000 0.000000000000 0.042968750000 0.038085937500
r2_live_over.tga 0.042968750000 0.000000000000 0.085937500000 0.038085937500
r2_live_pushed.tga 0.000000000000 0.039062500000 0.042968750000 0.077148437500
AR_botte.tga 0.085937500000 0.000000000000 0.125000000000 0.039062500000
AR_gilet.tga 0.042968750000 0.039062500000 0.082031250000 0.078125000000
AR_hand.tga 0.082031250000 0.039062500000 0.121093750000 0.078125000000
ar_pantabotte_mask.tga 0.000000000000 0.078125000000 0.039062500000 0.117187500000
AR_pantabotte.tga 0.039062500000 0.078125000000 0.078125000000 0.117187500000
BK_fyros.tga 0.078125000000 0.078125000000 0.117187500000 0.117187500000
BK_generic.tga 0.125000000000 0.000000000000 0.164062500000 0.039062500000
BK_goo.tga 0.164062500000 0.000000000000 0.203125000000 0.039062500000
BK_matis.tga 0.203125000000 0.000000000000 0.242187500000 0.039062500000
BK_primes.tga 0.121093750000 0.039062500000 0.160156250000 0.078125000000
BK_tryker.tga 0.160156250000 0.039062500000 0.199218750000 0.078125000000
BK_zorai.tga 0.199218750000 0.039062500000 0.238281250000 0.078125000000
MW_2h_axe.tga 0.117187500000 0.078125000000 0.156250000000 0.117187500000
MW_2h_lance.tga 0.156250000000 0.078125000000 0.195312500000 0.117187500000
MW_2h_mace.tga 0.195312500000 0.078125000000 0.234375000000 0.117187500000
MW_2h_sword.tga 0.000000000000 0.117187500000 0.039062500000 0.156250000000
MW_axe.tga 0.039062500000 0.117187500000 0.078125000000 0.156250000000
MW_dagger.tga 0.078125000000 0.117187500000 0.117187500000 0.156250000000
MW_lance.tga 0.117187500000 0.117187500000 0.156250000000 0.156250000000
MW_mace.tga 0.156250000000 0.117187500000 0.195312500000 0.156250000000
MW_staff.tga 0.195312500000 0.117187500000 0.234375000000 0.156250000000
MW_sword.tga 0.000000000000 0.156250000000 0.039062500000 0.195312500000
PA_anklet.tga 0.039062500000 0.156250000000 0.078125000000 0.195312500000
PA_bracelet.tga 0.078125000000 0.156250000000 0.117187500000 0.195312500000
PA_diadem.tga 0.117187500000 0.156250000000 0.156250000000 0.195312500000
PA_earring.tga 0.156250000000 0.156250000000 0.195312500000 0.195312500000
PA_pendant.tga 0.195312500000 0.156250000000 0.234375000000 0.195312500000
PA_ring.tga 0.000000000000 0.195312500000 0.039062500000 0.234375000000
PW_heavy.tga 0.039062500000 0.195312500000 0.078125000000 0.234375000000
PW_light.tga 0.078125000000 0.195312500000 0.117187500000 0.234375000000
PW_medium.tga 0.117187500000 0.195312500000 0.156250000000 0.234375000000
RW_autolaunch.tga 0.156250000000 0.195312500000 0.195312500000 0.234375000000
RW_bowgun.tga 0.195312500000 0.195312500000 0.234375000000 0.234375000000
RW_grenade.tga 0.242187500000 0.000000000000 0.281250000000 0.039062500000
RW_harpoongun.tga 0.281250000000 0.000000000000 0.320312500000 0.039062500000
RW_launcher.tga 0.320312500000 0.000000000000 0.359375000000 0.039062500000
RW_pistol.tga 0.359375000000 0.000000000000 0.398437500000 0.039062500000
RW_pistolarc.tga 0.398437500000 0.000000000000 0.437500000000 0.039062500000
RW_rifle.tga 0.437500000000 0.000000000000 0.476562500000 0.039062500000
SH_buckler.tga 0.238281250000 0.039062500000 0.277343750000 0.078125000000
SH_large_shield.tga 0.277343750000 0.039062500000 0.316406250000 0.078125000000
TP_caravane.tga 0.316406250000 0.039062500000 0.355468750000 0.078125000000
TP_kami.tga 0.355468750000 0.039062500000 0.394531250000 0.078125000000
W_AM_logo.tga 0.394531250000 0.039062500000 0.433593750000 0.078125000000
ar_armpad_mask.tga 0.433593750000 0.039062500000 0.472656250000 0.078125000000
ar_botte_mask.tga 0.234375000000 0.078125000000 0.273437500000 0.117187500000
ar_gilet_mask.tga 0.273437500000 0.078125000000 0.312500000000 0.117187500000
ar_hand_mask.tga 0.312500000000 0.078125000000 0.351562500000 0.117187500000
ar_helmet_mask.tga 0.351562500000 0.078125000000 0.390625000000 0.117187500000
bk_guild.tga 0.390625000000 0.078125000000 0.429687500000 0.117187500000
bk_training.tga 0.429687500000 0.078125000000 0.468750000000 0.117187500000
charge.tga 0.234375000000 0.117187500000 0.273437500000 0.156250000000
construction.tga 0.273437500000 0.117187500000 0.312500000000 0.156250000000
cristal_ammo.tga 0.312500000000 0.117187500000 0.351562500000 0.156250000000
cristal_spell.tga 0.351562500000 0.117187500000 0.390625000000 0.156250000000
ico_task_craft.tga 0.390625000000 0.117187500000 0.429687500000 0.156250000000
mp_buterfly_cocoon.tga 0.429687500000 0.117187500000 0.468750000000 0.156250000000
ico_task_fight.tga 0.234375000000 0.156250000000 0.273437500000 0.195312500000
ico_task_forage.tga 0.273437500000 0.156250000000 0.312500000000 0.195312500000
ico_task_generic.tga 0.312500000000 0.156250000000 0.351562500000 0.195312500000
ico_task_guild.tga 0.351562500000 0.156250000000 0.390625000000 0.195312500000
ico_task_rite.tga 0.390625000000 0.156250000000 0.429687500000 0.195312500000
ico_task_travel.tga 0.429687500000 0.156250000000 0.468750000000 0.195312500000
item_default.tga 0.234375000000 0.195312500000 0.273437500000 0.234375000000
item_plan_over.tga 0.273437500000 0.195312500000 0.312500000000 0.234375000000
mektoub_pack.tga 0.312500000000 0.195312500000 0.351562500000 0.234375000000
mektoub_steed.tga 0.351562500000 0.195312500000 0.390625000000 0.234375000000
mission_icon_0.tga 0.390625000000 0.195312500000 0.429687500000 0.234375000000
mission_icon_1.tga 0.429687500000 0.195312500000 0.468750000000 0.234375000000
mission_icon_2.tga 0.000000000000 0.234375000000 0.039062500000 0.273437500000
mission_icon_3.tga 0.039062500000 0.234375000000 0.078125000000 0.273437500000
mp_eyes.tga 0.078125000000 0.234375000000 0.117187500000 0.273437500000
mp_amber.tga 0.117187500000 0.234375000000 0.156250000000 0.273437500000
mp_bark.tga 0.156250000000 0.234375000000 0.195312500000 0.273437500000
mp_blood.tga 0.195312500000 0.234375000000 0.234375000000 0.273437500000
mp_bone.tga 0.234375000000 0.234375000000 0.273437500000 0.273437500000
mp_bud.tga 0.273437500000 0.234375000000 0.312500000000 0.273437500000
mp_buterfly_blue.tga 0.312500000000 0.234375000000 0.351562500000 0.273437500000
mp_dry_wood.tga 0.351562500000 0.234375000000 0.390625000000 0.273437500000
mp_claw.tga 0.390625000000 0.234375000000 0.429687500000 0.273437500000
mp_kitinshell.tga 0.429687500000 0.234375000000 0.468750000000 0.273437500000
mp_egg.tga 0.000000000000 0.273437500000 0.039062500000 0.312500000000
mp_flowers.tga 0.039062500000 0.273437500000 0.078125000000 0.312500000000
mp_fang.tga 0.078125000000 0.273437500000 0.117187500000 0.312500000000
mp_fiber.tga 0.117187500000 0.273437500000 0.156250000000 0.312500000000
rm_f_upgrade.tga 0.156250000000 0.273437500000 0.195312500000 0.312500000000
rm_f.tga 0.195312500000 0.273437500000 0.234375000000 0.312500000000
mp_fresh_loose_soil.tga 0.234375000000 0.273437500000 0.273437500000 0.312500000000
mp_fruit.tga 0.273437500000 0.273437500000 0.312500000000 0.312500000000
mp_generic.tga 0.312500000000 0.273437500000 0.351562500000 0.312500000000
mp_hairs.tga 0.351562500000 0.273437500000 0.390625000000 0.312500000000
mp_hoof.tga 0.390625000000 0.273437500000 0.429687500000 0.312500000000
mp_horn.tga 0.429687500000 0.273437500000 0.468750000000 0.312500000000
mp_horney.tga 0.000000000000 0.312500000000 0.039062500000 0.351562500000
mp_kitin_flesh.tga 0.039062500000 0.312500000000 0.078125000000 0.351562500000
mp_kitin_secretion.tga 0.078125000000 0.312500000000 0.117187500000 0.351562500000
mp_larva.tga 0.117187500000 0.312500000000 0.156250000000 0.351562500000
mp_leaf.tga 0.156250000000 0.312500000000 0.195312500000 0.351562500000
mp_leather.tga 0.195312500000 0.312500000000 0.234375000000 0.351562500000
mp_meat.tga 0.234375000000 0.312500000000 0.273437500000 0.351562500000
mp_moss.tga 0.273437500000 0.312500000000 0.312500000000 0.351562500000
mp_mushroom.tga 0.312500000000 0.312500000000 0.351562500000 0.351562500000
mp_nail.tga 0.351562500000 0.312500000000 0.390625000000 0.351562500000
mp_oil.tga 0.390625000000 0.312500000000 0.429687500000 0.351562500000
mp_parasite.tga 0.429687500000 0.312500000000 0.468750000000 0.351562500000
mp_pearl.tga 0.000000000000 0.351562500000 0.039062500000 0.390625000000
mp_pistil.tga 0.039062500000 0.351562500000 0.078125000000 0.390625000000
mp_plant_fossil.tga 0.078125000000 0.351562500000 0.117187500000 0.390625000000
mp_pollen.tga 0.117187500000 0.351562500000 0.156250000000 0.390625000000
mp_resin.tga 0.156250000000 0.351562500000 0.195312500000 0.390625000000
mp_rostrum.tga 0.195312500000 0.351562500000 0.234375000000 0.390625000000
mp_sap.tga 0.234375000000 0.351562500000 0.273437500000 0.390625000000
mp_seed.tga 0.273437500000 0.351562500000 0.312500000000 0.390625000000
mp_shell.tga 0.312500000000 0.351562500000 0.351562500000 0.390625000000
mp_silk_worm.tga 0.351562500000 0.351562500000 0.390625000000 0.390625000000
mp_skull.tga 0.390625000000 0.351562500000 0.429687500000 0.390625000000
mp_spiders_web.tga 0.429687500000 0.351562500000 0.468750000000 0.390625000000
mp_spine.tga 0.000000000000 0.390625000000 0.039062500000 0.429687500000
pw_4.tga 0.039062500000 0.390625000000 0.078125000000 0.429687500000
mp_stem.tga 0.078125000000 0.390625000000 0.117187500000 0.429687500000
mp_sting.tga 0.117187500000 0.390625000000 0.156250000000 0.429687500000
mp_straw.tga 0.156250000000 0.390625000000 0.195312500000 0.429687500000
mp_tail.tga 0.195312500000 0.390625000000 0.234375000000 0.429687500000
mp_tooth.tga 0.234375000000 0.390625000000 0.273437500000 0.429687500000
mp_trunk.tga 0.273437500000 0.390625000000 0.312500000000 0.429687500000
mp_whiskers.tga 0.312500000000 0.390625000000 0.351562500000 0.429687500000
mp_wood.tga 0.351562500000 0.390625000000 0.390625000000 0.429687500000
mp_skin.tga 0.390625000000 0.390625000000 0.429687500000 0.429687500000
mp_wood_node.tga 0.429687500000 0.390625000000 0.468750000000 0.429687500000
requirement.tga 0.000000000000 0.429687500000 0.039062500000 0.468750000000
rm_m_upgrade.tga 0.039062500000 0.429687500000 0.078125000000 0.468750000000
rm_m.tga 0.078125000000 0.429687500000 0.117187500000 0.468750000000
rm_r_upgrade.tga 0.117187500000 0.429687500000 0.156250000000 0.468750000000
rm_r.tga 0.156250000000 0.429687500000 0.195312500000 0.468750000000
to_ammo.tga 0.195312500000 0.429687500000 0.234375000000 0.468750000000
to_armor.tga 0.234375000000 0.429687500000 0.273437500000 0.468750000000
to_cooking_pot.tga 0.273437500000 0.429687500000 0.312500000000 0.468750000000
to_fishing_rod.tga 0.312500000000 0.429687500000 0.351562500000 0.468750000000
to_forage.tga 0.351562500000 0.429687500000 0.390625000000 0.468750000000
to_hammer.tga 0.390625000000 0.429687500000 0.429687500000 0.468750000000
to_jewelry_hammer.tga 0.429687500000 0.429687500000 0.468750000000 0.468750000000
to_jewels.tga 0.476562500000 0.000000000000 0.515625000000 0.039062500000
to_leathercutter.tga 0.515625000000 0.000000000000 0.554687500000 0.039062500000
to_melee.tga 0.554687500000 0.000000000000 0.593750000000 0.039062500000
to_needle.tga 0.593750000000 0.000000000000 0.632812500000 0.039062500000
to_pestle.tga 0.632812500000 0.000000000000 0.671875000000 0.039062500000
to_range.tga 0.671875000000 0.000000000000 0.710937500000 0.039062500000
to_searake.tga 0.710937500000 0.000000000000 0.750000000000 0.039062500000
to_spade.tga 0.750000000000 0.000000000000 0.789062500000 0.039062500000
to_stick.tga 0.789062500000 0.000000000000 0.828125000000 0.039062500000
to_tunneling_knife.tga 0.828125000000 0.000000000000 0.867187500000 0.039062500000
to_whip.tga 0.867187500000 0.000000000000 0.906250000000 0.039062500000
to_wrench.tga 0.906250000000 0.000000000000 0.945312500000 0.039062500000
w_pa_anklet.tga 0.945312500000 0.000000000000 0.984375000000 0.039062500000
w_pa_bracelet.tga 0.472656250000 0.039062500000 0.511718750000 0.078125000000
w_pa_diadem.tga 0.511718750000 0.039062500000 0.550781250000 0.078125000000
w_pa_earring.tga 0.550781250000 0.039062500000 0.589843750000 0.078125000000
w_pa_pendant.tga 0.589843750000 0.039062500000 0.628906250000 0.078125000000
w_pa_ring.tga 0.628906250000 0.039062500000 0.667968750000 0.078125000000
rm_h.tga 0.667968750000 0.039062500000 0.707031250000 0.078125000000
rm_h_upgrade.tga 0.707031250000 0.039062500000 0.746093750000 0.078125000000
mp_cereal.tga 0.746093750000 0.039062500000 0.785156250000 0.078125000000
mp_dandelion.tga 0.785156250000 0.039062500000 0.824218750000 0.078125000000
mp_dust.tga 0.824218750000 0.039062500000 0.863281250000 0.078125000000
mp_firefly_abdomen.tga 0.863281250000 0.039062500000 0.902343750000 0.078125000000
mp_fish_scale.tga 0.902343750000 0.039062500000 0.941406250000 0.078125000000
mp_goo_residue.tga 0.941406250000 0.039062500000 0.980468750000 0.078125000000
mp_insect_fossil.tga 0.468750000000 0.078125000000 0.507812500000 0.117187500000
mp_pigment.tga 0.507812500000 0.078125000000 0.546875000000 0.117187500000
mp_sawdust.tga 0.546875000000 0.078125000000 0.585937500000 0.117187500000
mp_beak.tga 0.585937500000 0.078125000000 0.625000000000 0.117187500000
mp_pelvis.tga 0.625000000000 0.078125000000 0.664062500000 0.117187500000
mg_glove.tga 0.664062500000 0.078125000000 0.703125000000 0.117187500000
mp_ligament.tga 0.703125000000 0.078125000000 0.742187500000 0.117187500000
mp_mandible.tga 0.742187500000 0.078125000000 0.781250000000 0.117187500000
mp_wing.tga 0.781250000000 0.078125000000 0.820312500000 0.117187500000
bk_mission.tga 0.820312500000 0.078125000000 0.859375000000 0.117187500000
ico_mission_art_fyros.tga 0.859375000000 0.078125000000 0.898437500000 0.117187500000
ico_mission_art_matis.tga 0.898437500000 0.078125000000 0.937500000000 0.117187500000
ico_mission_art_tryker.tga 0.937500000000 0.078125000000 0.976562500000 0.117187500000
ico_mission_art_zorai.tga 0.468750000000 0.117187500000 0.507812500000 0.156250000000
ico_mission_barrel.tga 0.507812500000 0.117187500000 0.546875000000 0.156250000000
ico_mission_bottle.tga 0.546875000000 0.117187500000 0.585937500000 0.156250000000
ico_mission_casket.tga 0.585937500000 0.117187500000 0.625000000000 0.156250000000
ico_mission_medicine.tga 0.625000000000 0.117187500000 0.664062500000 0.156250000000
ico_mission_message.tga 0.664062500000 0.117187500000 0.703125000000 0.156250000000
ico_mission_package.tga 0.703125000000 0.117187500000 0.742187500000 0.156250000000
ico_mission_pot.tga 0.742187500000 0.117187500000 0.781250000000 0.156250000000
ico_mission_purse.tga 0.781250000000 0.117187500000 0.820312500000 0.156250000000
ico_haircolor.tga 0.820312500000 0.117187500000 0.859375000000 0.156250000000
ico_haircut.tga 0.859375000000 0.117187500000 0.898437500000 0.156250000000
ico_tatoo.tga 0.898437500000 0.117187500000 0.937500000000 0.156250000000
bk_service.tga 0.937500000000 0.117187500000 0.976562500000 0.156250000000
ico_task_done.tga 0.468750000000 0.156250000000 0.507812500000 0.195312500000
ico_task_failed.tga 0.507812500000 0.156250000000 0.546875000000 0.195312500000
bk_horde.tga 0.546875000000 0.156250000000 0.585937500000 0.195312500000
bk_kami.tga 0.585937500000 0.156250000000 0.625000000000 0.195312500000
bk_karavan.tga 0.625000000000 0.156250000000 0.664062500000 0.195312500000
mp_batiment_brique.tga 0.664062500000 0.156250000000 0.703125000000 0.195312500000
mp_batiment_colonne.tga 0.703125000000 0.156250000000 0.742187500000 0.195312500000
mp_batiment_colonne_justice.tga 0.742187500000 0.156250000000 0.781250000000 0.195312500000
mp_batiment_comble.tga 0.781250000000 0.156250000000 0.820312500000 0.195312500000
mp_batiment_noyau_maduk.tga 0.820312500000 0.156250000000 0.859375000000 0.195312500000
mp_batiment_ornement.tga 0.859375000000 0.156250000000 0.898437500000 0.195312500000
mp_batiment_revetement.tga 0.898437500000 0.156250000000 0.937500000000 0.195312500000
mp_batiment_socle.tga 0.937500000000 0.156250000000 0.976562500000 0.195312500000
mp_batiment_statue.tga 0.468750000000 0.195312500000 0.507812500000 0.234375000000
ico_cataliseur_xp.tga 0.507812500000 0.195312500000 0.546875000000 0.234375000000
ico_noix.tga 0.546875000000 0.195312500000 0.585937500000 0.234375000000
ico_amande.tga 0.585937500000 0.195312500000 0.625000000000 0.234375000000
bk_outpost.tga 0.625000000000 0.195312500000 0.664062500000 0.234375000000
ico_fleur_carac_2.tga 0.664062500000 0.195312500000 0.703125000000 0.234375000000
ico_fleur_carac_2_mask.tga 0.703125000000 0.195312500000 0.742187500000 0.234375000000
ico_fleur_carac_1_mask.tga 0.742187500000 0.195312500000 0.781250000000 0.234375000000
ico_fleur_carac_1.tga 0.781250000000 0.195312500000 0.820312500000 0.234375000000
ico_consommable_over.tga 0.820312500000 0.195312500000 0.859375000000 0.234375000000
ico_tourbe.tga 0.859375000000 0.195312500000 0.898437500000 0.234375000000
ico_spores.tga 0.898437500000 0.195312500000 0.937500000000 0.234375000000
pw_5.tga 0.937500000000 0.195312500000 0.976562500000 0.234375000000
ge_mission_outpost_townhall.tga 0.468750000000 0.234375000000 0.507812500000 0.273437500000
ico_racine.tga 0.507812500000 0.234375000000 0.546875000000 0.273437500000
conso_fleur.tga 0.546875000000 0.234375000000 0.585937500000 0.273437500000
ico_foreuse.tga 0.585937500000 0.234375000000 0.625000000000 0.273437500000
conso_fleur_mask.tga 0.625000000000 0.234375000000 0.664062500000 0.273437500000
clef.tga 0.664062500000 0.234375000000 0.703125000000 0.273437500000
ico_fleur_carac_3.tga 0.703125000000 0.234375000000 0.742187500000 0.273437500000
ico_fleur_carac_3_mask.tga 0.742187500000 0.234375000000 0.781250000000 0.273437500000
mp_filament.tga 0.781250000000 0.234375000000 0.820312500000 0.273437500000
mp_gomme.tga 0.820312500000 0.234375000000 0.859375000000 0.273437500000
mp_liane.tga 0.859375000000 0.234375000000 0.898437500000 0.273437500000
mp_lichen.tga 0.898437500000 0.234375000000 0.937500000000 0.273437500000
mp_ronce.tga 0.937500000000 0.234375000000 0.976562500000 0.273437500000
mp_suc.tga 0.468750000000 0.273437500000 0.507812500000 0.312500000000
conso_nectar.tga 0.507812500000 0.273437500000 0.546875000000 0.312500000000
conso_nectar_mask.tga 0.546875000000 0.273437500000 0.585937500000 0.312500000000
conso_grappe_mask.tga 0.585937500000 0.273437500000 0.625000000000 0.312500000000
conso_grappe.tga 0.625000000000 0.273437500000 0.664062500000 0.312500000000
conso_branche.tga 0.664062500000 0.273437500000 0.703125000000 0.312500000000
conso_branche_mask.tga 0.703125000000 0.273437500000 0.742187500000 0.312500000000
tetekitin.tga 0.742187500000 0.273437500000 0.781250000000 0.312500000000
ico_task_generic_quart.tga 0.781250000000 0.273437500000 0.820312500000 0.312500000000
quest_coeur.tga 0.820312500000 0.273437500000 0.859375000000 0.312500000000
quest_foie.tga 0.859375000000 0.273437500000 0.898437500000 0.312500000000
quest_jeton.tga 0.898437500000 0.273437500000 0.937500000000 0.312500000000
quest_langue.tga 0.937500000000 0.273437500000 0.976562500000 0.312500000000
quest_louche.tga 0.468750000000 0.312500000000 0.507812500000 0.351562500000
quest_oreille.tga 0.507812500000 0.312500000000 0.546875000000 0.351562500000
quest_patte.tga 0.546875000000 0.312500000000 0.585937500000 0.351562500000
quest_poils.tga 0.585937500000 0.312500000000 0.625000000000 0.351562500000
quest_queue.tga 0.625000000000 0.312500000000 0.664062500000 0.351562500000
quest_ticket.tga 0.664062500000 0.312500000000 0.703125000000 0.351562500000
spe_beast.tga 0.703125000000 0.312500000000 0.742187500000 0.351562500000
spe_com.tga 0.742187500000 0.312500000000 0.781250000000 0.351562500000
spe_inventory.tga 0.781250000000 0.312500000000 0.820312500000 0.351562500000
spe_labs.tga 0.820312500000 0.312500000000 0.859375000000 0.351562500000
spe_memory.tga 0.859375000000 0.312500000000 0.898437500000 0.351562500000
spe_options.tga 0.898437500000 0.312500000000 0.937500000000 0.351562500000
spe_status.tga 0.937500000000 0.312500000000 0.976562500000 0.351562500000
AR_armpad.tga 0.468750000000 0.351562500000 0.507812500000 0.390625000000
AM_logo.tga 0.507812500000 0.351562500000 0.546875000000 0.390625000000
AR_helmet.tga 0.546875000000 0.351562500000 0.585937500000 0.390625000000
faction_zorai.tga 0.585937500000 0.351562500000 0.617187500000 0.382812500000
asc_rolemasterfight.tga 0.617187500000 0.351562500000 0.648437500000 0.382812500000
asc_rolemastermagic.tga 0.648437500000 0.351562500000 0.679687500000 0.382812500000
asc_rolemasterharvest.tga 0.679687500000 0.351562500000 0.710937500000 0.382812500000
asc_unknown.tga 0.710937500000 0.351562500000 0.742187500000 0.382812500000
asc_exit.tga 0.742187500000 0.351562500000 0.773437500000 0.382812500000
faction_kami.tga 0.773437500000 0.351562500000 0.804687500000 0.382812500000
faction_karavan.tga 0.804687500000 0.351562500000 0.835937500000 0.382812500000
asc_rolemastercraft.tga 0.835937500000 0.351562500000 0.867187500000 0.382812500000
faction_fyros.tga 0.867187500000 0.351562500000 0.898437500000 0.382812500000
faction_matis.tga 0.898437500000 0.351562500000 0.929687500000 0.382812500000
faction_tryker.tga 0.929687500000 0.351562500000 0.960937500000 0.382812500000
faction_tryton.tga 0.960937500000 0.351562500000 0.992187500000 0.382812500000
mail.tga 0.585937500000 0.382812500000 0.617187500000 0.406250000000
ico_armor_clip.tga 0.976562500000 0.078125000000 1.000000000000 0.101562500000
ico_armor_shell.tga 0.976562500000 0.101562500000 1.000000000000 0.125000000000
ico_barrel.tga 0.976562500000 0.125000000000 1.000000000000 0.148437500000
ico_blade.tga 0.976562500000 0.148437500000 1.000000000000 0.171875000000
ico_clothes.tga 0.976562500000 0.171875000000 1.000000000000 0.195312500000
ico_trigger.tga 0.976562500000 0.195312500000 1.000000000000 0.218750000000
ico_counterweight.tga 0.976562500000 0.218750000000 1.000000000000 0.242187500000
ico_magic_focus.tga 0.976562500000 0.242187500000 1.000000000000 0.265625000000
ico_explosif.tga 0.976562500000 0.265625000000 1.000000000000 0.289062500000
BK_fyros_brick.tga 0.976562500000 0.289062500000 1.000000000000 0.312500000000
1h_over.tga 0.976562500000 0.312500000000 1.000000000000 0.335937500000
2h_over.tga 0.617187500000 0.382812500000 0.640625000000 0.406250000000
BK_magie_noire_brick.tga 0.640625000000 0.382812500000 0.664062500000 0.406250000000
BK_generic_brick.tga 0.664062500000 0.382812500000 0.687500000000 0.406250000000
cp_over_opening_2.tga 0.687500000000 0.382812500000 0.710937500000 0.406250000000
BK_matis_brick.tga 0.710937500000 0.382812500000 0.734375000000 0.406250000000
BK_tryker_brick.tga 0.734375000000 0.382812500000 0.757812500000 0.406250000000
BK_zorai_brick.tga 0.757812500000 0.382812500000 0.781250000000 0.406250000000
bk_aura.tga 0.781250000000 0.382812500000 0.804687500000 0.406250000000
fo_back.tga 0.804687500000 0.382812500000 0.828125000000 0.406250000000
bk_power.tga 0.828125000000 0.382812500000 0.851562500000 0.406250000000
fo_over.tga 0.851562500000 0.382812500000 0.875000000000 0.406250000000
brick_default.tga 0.875000000000 0.382812500000 0.898437500000 0.406250000000
ch_back.tga 0.898437500000 0.382812500000 0.921875000000 0.406250000000
cp_back.tga 0.921875000000 0.382812500000 0.945312500000 0.406250000000
cp_over_break.tga 0.945312500000 0.382812500000 0.968750000000 0.406250000000
cp_over_less.tga 0.968750000000 0.382812500000 0.992187500000 0.406250000000
cp_over_more.tga 0.468750000000 0.390625000000 0.492187500000 0.414062500000
cp_over_opening.tga 0.492187500000 0.390625000000 0.515625000000 0.414062500000
ef_over_break.tga 0.515625000000 0.390625000000 0.539062500000 0.414062500000
ef_back.tga 0.539062500000 0.390625000000 0.562500000000 0.414062500000
ico_absorb_damage.tga 0.562500000000 0.390625000000 0.585937500000 0.414062500000
ef_over_less.tga 0.585937500000 0.406250000000 0.609375000000 0.429687500000
ef_over_more.tga 0.609375000000 0.406250000000 0.632812500000 0.429687500000
ico_durability.tga 0.632812500000 0.406250000000 0.656250000000 0.429687500000
ico_landmark_bonus.tga 0.656250000000 0.406250000000 0.679687500000 0.429687500000
ico_speed.tga 0.679687500000 0.406250000000 0.703125000000 0.429687500000
fp_tools.tga 0.703125000000 0.406250000000 0.726562500000 0.429687500000
ico_aim_bird_wings.tga 0.726562500000 0.406250000000 0.750000000000 0.429687500000
cb_main_nue.tga 0.750000000000 0.406250000000 0.773437500000 0.429687500000
fp_ammo.tga 0.773437500000 0.406250000000 0.796875000000 0.429687500000
fp_armor.tga 0.796875000000 0.406250000000 0.820312500000 0.429687500000
fp_jewel.tga 0.820312500000 0.406250000000 0.843750000000 0.429687500000
fp_melee.tga 0.843750000000 0.406250000000 0.867187500000 0.429687500000
fp_over.tga 0.867187500000 0.406250000000 0.890625000000 0.429687500000
fp_range.tga 0.890625000000 0.406250000000 0.914062500000 0.429687500000
fp_shield.tga 0.914062500000 0.406250000000 0.937500000000 0.429687500000
ico_accurate.tga 0.937500000000 0.406250000000 0.960937500000 0.429687500000
ico_acid.tga 0.960937500000 0.406250000000 0.984375000000 0.429687500000
ico_aim.tga 0.468750000000 0.414062500000 0.492187500000 0.437500000000
ico_atysian.tga 0.492187500000 0.414062500000 0.515625000000 0.437500000000
ico_atys.tga 0.515625000000 0.414062500000 0.539062500000 0.437500000000
ico_aim_flying_kitin_abdomen.tga 0.539062500000 0.414062500000 0.562500000000 0.437500000000
ico_aim_homin_arms.tga 0.562500000000 0.414062500000 0.585937500000 0.437500000000
ico_aim_homin_chest.tga 0.585937500000 0.429687500000 0.609375000000 0.453125000000
ico_aim_homin_feet.tga 0.609375000000 0.429687500000 0.632812500000 0.453125000000
ico_aim_homin_feint.tga 0.632812500000 0.429687500000 0.656250000000 0.453125000000
ico_aim_homin_hands.tga 0.656250000000 0.429687500000 0.679687500000 0.453125000000
ico_aim_homin_head.tga 0.679687500000 0.429687500000 0.703125000000 0.453125000000
ico_aim_homin_legs.tga 0.703125000000 0.429687500000 0.726562500000 0.453125000000
ico_aim_kitin_head.tga 0.726562500000 0.429687500000 0.750000000000 0.453125000000
ico_angle.tga 0.750000000000 0.429687500000 0.773437500000 0.453125000000
ico_armor.tga 0.773437500000 0.429687500000 0.796875000000 0.453125000000
ico_armor_heavy.tga 0.796875000000 0.429687500000 0.820312500000 0.453125000000
ico_armor_kitin.tga 0.820312500000 0.429687500000 0.843750000000 0.453125000000
ico_armor_light.tga 0.843750000000 0.429687500000 0.867187500000 0.453125000000
ico_armor_medium.tga 0.867187500000 0.429687500000 0.890625000000 0.453125000000
ico_armor_penalty.tga 0.890625000000 0.429687500000 0.914062500000 0.453125000000
ico_berserk.tga 0.914062500000 0.429687500000 0.937500000000 0.453125000000
ico_bash.tga 0.937500000000 0.429687500000 0.960937500000 0.453125000000
ico_celestial.tga 0.960937500000 0.429687500000 0.984375000000 0.453125000000
ico_bleeding.tga 0.468750000000 0.437500000000 0.492187500000 0.460937500000
ico_blind.tga 0.492187500000 0.437500000000 0.515625000000 0.460937500000
ico_blunt.tga 0.515625000000 0.437500000000 0.539062500000 0.460937500000
ico_constitution.tga 0.539062500000 0.437500000000 0.562500000000 0.460937500000
ico_cold.tga 0.562500000000 0.437500000000 0.585937500000 0.460937500000
ico_over_hit_feet_hands.tga 0.585937500000 0.453125000000 0.609375000000 0.476562500000
ico_create_sapload.tga 0.609375000000 0.453125000000 0.632812500000 0.476562500000
ico_curse.tga 0.632812500000 0.453125000000 0.656250000000 0.476562500000
ico_debuff.tga 0.656250000000 0.453125000000 0.679687500000 0.476562500000
ico_debuff_resist.tga 0.679687500000 0.453125000000 0.703125000000 0.476562500000
ico_debuff_skill.tga 0.703125000000 0.453125000000 0.726562500000 0.476562500000
ico_desert.tga 0.726562500000 0.453125000000 0.750000000000 0.476562500000
ico_dexterity.tga 0.750000000000 0.453125000000 0.773437500000 0.476562500000
ico_disarm.tga 0.773437500000 0.453125000000 0.796875000000 0.476562500000
ico_dodge.tga 0.796875000000 0.453125000000 0.820312500000 0.476562500000
ico_dot.tga 0.820312500000 0.453125000000 0.843750000000 0.476562500000
ico_electric.tga 0.843750000000 0.453125000000 0.867187500000 0.476562500000
ico_fear.tga 0.867187500000 0.453125000000 0.890625000000 0.476562500000
ico_fire.tga 0.890625000000 0.453125000000 0.914062500000 0.476562500000
ico_focus.tga 0.914062500000 0.453125000000 0.937500000000 0.476562500000
ico_forbid_item.tga 0.937500000000 0.453125000000 0.960937500000 0.476562500000
ico_forest.tga 0.960937500000 0.453125000000 0.984375000000 0.476562500000
ico_goo.tga 0.468750000000 0.460937500000 0.492187500000 0.484375000000
ico_hatred.tga 0.492187500000 0.460937500000 0.515625000000 0.484375000000
ico_heal.tga 0.515625000000 0.460937500000 0.539062500000 0.484375000000
ico_hit_rate.tga 0.539062500000 0.460937500000 0.562500000000 0.484375000000
ico_incapacity.tga 0.562500000000 0.460937500000 0.585937500000 0.484375000000
ico_intelligence.tga 0.000000000000 0.468750000000 0.023437500000 0.492187500000
ico_interrupt.tga 0.023437500000 0.468750000000 0.046875000000 0.492187500000
ico_jungle.tga 0.046875000000 0.468750000000 0.070312500000 0.492187500000
ico_lacustre.tga 0.070312500000 0.468750000000 0.093750000000 0.492187500000
ico_level.tga 0.093750000000 0.468750000000 0.117187500000 0.492187500000
ico_location.tga 0.117187500000 0.468750000000 0.140625000000 0.492187500000
ico_madness.tga 0.140625000000 0.468750000000 0.164062500000 0.492187500000
ico_magic.tga 0.164062500000 0.468750000000 0.187500000000 0.492187500000
ico_mental.tga 0.187500000000 0.468750000000 0.210937500000 0.492187500000
ico_metabolism.tga 0.210937500000 0.468750000000 0.234375000000 0.492187500000
ico_mezz.tga 0.234375000000 0.468750000000 0.257812500000 0.492187500000
ico_misfortune.tga 0.257812500000 0.468750000000 0.281250000000 0.492187500000
ico_move.tga 0.281250000000 0.468750000000 0.304687500000 0.492187500000
ico_multi_fight.tga 0.304687500000 0.468750000000 0.328125000000 0.492187500000
ico_multiple_spots.tga 0.328125000000 0.468750000000 0.351562500000 0.492187500000
ico_opening_hit.tga 0.351562500000 0.468750000000 0.375000000000 0.492187500000
ico_over_autumn.tga 0.375000000000 0.468750000000 0.398437500000 0.492187500000
ico_over_degenerated.tga 0.398437500000 0.468750000000 0.421875000000 0.492187500000
ico_over_fauna.tga 0.421875000000 0.468750000000 0.445312500000 0.492187500000
ico_over_flora.tga 0.445312500000 0.468750000000 0.468750000000 0.492187500000
ico_over_hit_arms.tga 0.585937500000 0.476562500000 0.609375000000 0.500000000000
ico_over_hit_chest.tga 0.609375000000 0.476562500000 0.632812500000 0.500000000000
ico_over_hit_feet.tga 0.632812500000 0.476562500000 0.656250000000 0.500000000000
ico_anti_magic_shield.tga 0.656250000000 0.476562500000 0.679687500000 0.500000000000
ico_over_hit_feet_head.tga 0.679687500000 0.476562500000 0.703125000000 0.500000000000
ico_over_hit_feet_x2.tga 0.703125000000 0.476562500000 0.726562500000 0.500000000000
ico_over_hit_feint_x3.tga 0.726562500000 0.476562500000 0.750000000000 0.500000000000
ico_over_hit_hands.tga 0.750000000000 0.476562500000 0.773437500000 0.500000000000
ico_over_hit_hands_chest.tga 0.773437500000 0.476562500000 0.796875000000 0.500000000000
ico_over_hit_hands_head.tga 0.796875000000 0.476562500000 0.820312500000 0.500000000000
ico_over_hit_head.tga 0.820312500000 0.476562500000 0.843750000000 0.500000000000
ico_over_hit_head_x3.tga 0.843750000000 0.476562500000 0.867187500000 0.500000000000
ico_over_hit_legs.tga 0.867187500000 0.476562500000 0.890625000000 0.500000000000
ico_over_homin.tga 0.890625000000 0.476562500000 0.914062500000 0.500000000000
ico_over_kitin.tga 0.914062500000 0.476562500000 0.937500000000 0.500000000000
ico_over_magic.tga 0.937500000000 0.476562500000 0.960937500000 0.500000000000
ico_over_melee.tga 0.960937500000 0.476562500000 0.984375000000 0.500000000000
ico_over_racial.tga 0.468750000000 0.484375000000 0.492187500000 0.507812500000
ico_over_range.tga 0.492187500000 0.484375000000 0.515625000000 0.507812500000
ico_over_special.tga 0.515625000000 0.484375000000 0.539062500000 0.507812500000
ico_over_spring.tga 0.539062500000 0.484375000000 0.562500000000 0.507812500000
ico_over_summer.tga 0.562500000000 0.484375000000 0.585937500000 0.507812500000
ico_over_winter.tga 0.000000000000 0.492187500000 0.023437500000 0.515625000000
ico_parry.tga 0.023437500000 0.492187500000 0.046875000000 0.515625000000
ico_piercing.tga 0.046875000000 0.492187500000 0.070312500000 0.515625000000
ico_poison.tga 0.070312500000 0.492187500000 0.093750000000 0.515625000000
ico_power.tga 0.093750000000 0.492187500000 0.117187500000 0.515625000000
ico_preservation.tga 0.117187500000 0.492187500000 0.140625000000 0.515625000000
ico_primal.tga 0.140625000000 0.492187500000 0.164062500000 0.515625000000
ico_prime_roots.tga 0.164062500000 0.492187500000 0.187500000000 0.515625000000
ico_private.tga 0.187500000000 0.492187500000 0.210937500000 0.515625000000
ico_quality.tga 0.210937500000 0.492187500000 0.234375000000 0.515625000000
ico_range.tga 0.234375000000 0.492187500000 0.257812500000 0.515625000000
ico_root.tga 0.257812500000 0.492187500000 0.281250000000 0.515625000000
ico_rot.tga 0.281250000000 0.492187500000 0.304687500000 0.515625000000
ico_safe.tga 0.304687500000 0.492187500000 0.328125000000 0.515625000000
ico_sap.tga 0.328125000000 0.492187500000 0.351562500000 0.515625000000
ico_self_damage.tga 0.351562500000 0.492187500000 0.375000000000 0.515625000000
ico_shielding.tga 0.375000000000 0.492187500000 0.398437500000 0.515625000000
ico_shockwave.tga 0.398437500000 0.492187500000 0.421875000000 0.515625000000
ico_sickness.tga 0.421875000000 0.492187500000 0.445312500000 0.515625000000
ico_slashing.tga 0.445312500000 0.492187500000 0.468750000000 0.515625000000
ico_slow.tga 0.585937500000 0.500000000000 0.609375000000 0.523437500000
ico_soft_spot.tga 0.609375000000 0.500000000000 0.632812500000 0.523437500000
ico_source_time.tga 0.632812500000 0.500000000000 0.656250000000 0.523437500000
ico_spell_break.tga 0.656250000000 0.500000000000 0.679687500000 0.523437500000
ico_stamina.tga 0.679687500000 0.500000000000 0.703125000000 0.523437500000
ico_strength.tga 0.703125000000 0.500000000000 0.726562500000 0.523437500000
ico_stunn.tga 0.726562500000 0.500000000000 0.750000000000 0.523437500000
ico_taunt.tga 0.750000000000 0.500000000000 0.773437500000 0.523437500000
ico_time.tga 0.773437500000 0.500000000000 0.796875000000 0.523437500000
ico_use_enchantement.tga 0.796875000000 0.500000000000 0.820312500000 0.523437500000
ico_vampire.tga 0.820312500000 0.500000000000 0.843750000000 0.523437500000
ico_visibility.tga 0.843750000000 0.500000000000 0.867187500000 0.523437500000
ico_weight.tga 0.867187500000 0.500000000000 0.890625000000 0.523437500000
ico_wellbalanced.tga 0.890625000000 0.500000000000 0.914062500000 0.523437500000
ico_will.tga 0.914062500000 0.500000000000 0.937500000000 0.523437500000
ico_windding.tga 0.937500000000 0.500000000000 0.960937500000 0.523437500000
ico_wisdom.tga 0.960937500000 0.500000000000 0.984375000000 0.523437500000
mf_back.tga 0.468750000000 0.507812500000 0.492187500000 0.531250000000
mf_over.tga 0.492187500000 0.507812500000 0.515625000000 0.531250000000
mp_back_curative.tga 0.515625000000 0.507812500000 0.539062500000 0.531250000000
mp_back_offensive.tga 0.539062500000 0.507812500000 0.562500000000 0.531250000000
mp_back_selfonly.tga 0.562500000000 0.507812500000 0.585937500000 0.531250000000
mp_over_link.tga 0.000000000000 0.515625000000 0.023437500000 0.539062500000
op_back.tga 0.023437500000 0.515625000000 0.046875000000 0.539062500000
op_over_break.tga 0.046875000000 0.515625000000 0.070312500000 0.539062500000
op_over_less.tga 0.070312500000 0.515625000000 0.093750000000 0.539062500000
op_over_more.tga 0.093750000000 0.515625000000 0.117187500000 0.539062500000
pa_back.tga 0.117187500000 0.515625000000 0.140625000000 0.539062500000
pa_over_break.tga 0.140625000000 0.515625000000 0.164062500000 0.539062500000
pa_over_less.tga 0.164062500000 0.515625000000 0.187500000000 0.539062500000
pa_over_more.tga 0.187500000000 0.515625000000 0.210937500000 0.539062500000
ico_balance_hp.tga 0.210937500000 0.515625000000 0.234375000000 0.539062500000
ico_bomb.tga 0.234375000000 0.515625000000 0.257812500000 0.539062500000
ico_circular_attack.tga 0.257812500000 0.515625000000 0.281250000000 0.539062500000
ico_feint.tga 0.281250000000 0.515625000000 0.304687500000 0.539062500000
ico_invulnerability.tga 0.304687500000 0.515625000000 0.328125000000 0.539062500000
ico_ricochet.tga 0.328125000000 0.515625000000 0.351562500000 0.539062500000
ico_speeding_up.tga 0.351562500000 0.515625000000 0.375000000000 0.539062500000
ico_spray.tga 0.375000000000 0.515625000000 0.398437500000 0.539062500000
ico_umbrella.tga 0.398437500000 0.515625000000 0.421875000000 0.539062500000
ico_war_cry.tga 0.421875000000 0.515625000000 0.445312500000 0.539062500000
no_action.tga 0.445312500000 0.515625000000 0.468750000000 0.539062500000
bk_conso.tga 0.585937500000 0.523437500000 0.609375000000 0.546875000000
ico_concentration.tga 0.609375000000 0.523437500000 0.632812500000 0.546875000000
ico_extracting.tga 0.632812500000 0.523437500000 0.656250000000 0.546875000000
ico_gardening.tga 0.656250000000 0.523437500000 0.679687500000 0.546875000000
ico_gentle.tga 0.679687500000 0.523437500000 0.703125000000 0.546875000000
ico_harmful.tga 0.703125000000 0.523437500000 0.726562500000 0.546875000000
ico_prospecting.tga 0.726562500000 0.523437500000 0.750000000000 0.546875000000
ico_spying.tga 0.750000000000 0.523437500000 0.773437500000 0.546875000000
ico_time_bonus.tga 0.773437500000 0.523437500000 0.796875000000 0.546875000000
fp_building.tga 0.796875000000 0.523437500000 0.820312500000 0.546875000000
bk_outpost_brick.tga 0.820312500000 0.523437500000 0.843750000000 0.546875000000
building_state_24x24.tga 0.843750000000 0.523437500000 0.867187500000 0.546875000000
ico_shield_up.tga 0.867187500000 0.523437500000 0.890625000000 0.546875000000
ico_shield_buff.tga 0.890625000000 0.523437500000 0.914062500000 0.546875000000
ico_forage_buff.tga 0.914062500000 0.523437500000 0.937500000000 0.546875000000
ico_craft_buff.tga 0.937500000000 0.523437500000 0.960937500000 0.546875000000
ico_magic_action_buff.tga 0.960937500000 0.523437500000 0.984375000000 0.546875000000
ico_magic_target_buff.tga 0.468750000000 0.531250000000 0.492187500000 0.554687500000
ico_range_action_buff.tga 0.492187500000 0.531250000000 0.515625000000 0.554687500000
ico_melee_target_buff.tga 0.515625000000 0.531250000000 0.539062500000 0.554687500000
ico_melee_action_buff.tga 0.539062500000 0.531250000000 0.562500000000 0.554687500000
ico_range_target_buff.tga 0.562500000000 0.531250000000 0.585937500000 0.554687500000
ico_firing_pin.tga 0.000000000000 0.539062500000 0.023437500000 0.562500000000
ico_gripp.tga 0.023437500000 0.539062500000 0.046875000000 0.562500000000
ico_hammer.tga 0.046875000000 0.539062500000 0.070312500000 0.562500000000
ico_jewel_stone.tga 0.070312500000 0.539062500000 0.093750000000 0.562500000000
us_back_0.tga 0.093750000000 0.539062500000 0.117187500000 0.562500000000
ico_jewel_stone_support.tga 0.117187500000 0.539062500000 0.140625000000 0.562500000000
W_slot_shortcut_id0.tga 0.140625000000 0.539062500000 0.164062500000 0.562500000000
W_slot_shortcut_id1.tga 0.164062500000 0.539062500000 0.187500000000 0.562500000000
W_slot_shortcut_id2.tga 0.187500000000 0.539062500000 0.210937500000 0.562500000000
W_slot_shortcut_id3.tga 0.210937500000 0.539062500000 0.234375000000 0.562500000000
W_slot_shortcut_id4.tga 0.234375000000 0.539062500000 0.257812500000 0.562500000000
W_slot_shortcut_id5.tga 0.257812500000 0.539062500000 0.281250000000 0.562500000000
W_slot_shortcut_id6.tga 0.281250000000 0.539062500000 0.304687500000 0.562500000000
W_slot_shortcut_id7.tga 0.304687500000 0.539062500000 0.328125000000 0.562500000000
W_slot_shortcut_id8.tga 0.328125000000 0.539062500000 0.351562500000 0.562500000000
W_slot_shortcut_id9.tga 0.351562500000 0.539062500000 0.375000000000 0.562500000000
ico_lining.tga 0.375000000000 0.539062500000 0.398437500000 0.562500000000
ico_shaft.tga 0.398437500000 0.539062500000 0.421875000000 0.562500000000
ico_stuffing.tga 0.421875000000 0.539062500000 0.445312500000 0.562500000000
tb_contacts.tga 0.445312500000 0.539062500000 0.468750000000 0.562500000000
tb_connection.tga 0.585937500000 0.546875000000 0.609375000000 0.570312500000
us_back_1.tga 0.609375000000 0.546875000000 0.632812500000 0.570312500000
us_back_2.tga 0.632812500000 0.546875000000 0.656250000000 0.570312500000
us_back_3.tga 0.656250000000 0.546875000000 0.679687500000 0.570312500000
us_back_4.tga 0.679687500000 0.546875000000 0.703125000000 0.570312500000
us_back_5.tga 0.703125000000 0.546875000000 0.726562500000 0.570312500000
us_back_6.tga 0.726562500000 0.546875000000 0.750000000000 0.570312500000
us_back_7.tga 0.750000000000 0.546875000000 0.773437500000 0.570312500000
us_back_8.tga 0.773437500000 0.546875000000 0.796875000000 0.570312500000
us_back_9.tga 0.796875000000 0.546875000000 0.820312500000 0.570312500000
us_ico_0.tga 0.820312500000 0.546875000000 0.843750000000 0.570312500000
us_ico_1.tga 0.843750000000 0.546875000000 0.867187500000 0.570312500000
us_ico_2.tga 0.867187500000 0.546875000000 0.890625000000 0.570312500000
us_ico_3.tga 0.890625000000 0.546875000000 0.914062500000 0.570312500000
us_ico_4.tga 0.914062500000 0.546875000000 0.937500000000 0.570312500000
us_ico_5.tga 0.937500000000 0.546875000000 0.960937500000 0.570312500000
us_ico_6.tga 0.960937500000 0.546875000000 0.984375000000 0.570312500000
us_ico_7.tga 0.468750000000 0.554687500000 0.492187500000 0.578125000000
us_ico_8.tga 0.492187500000 0.554687500000 0.515625000000 0.578125000000
us_ico_9.tga 0.515625000000 0.554687500000 0.539062500000 0.578125000000
us_over_0.tga 0.539062500000 0.554687500000 0.562500000000 0.578125000000
us_over_1.tga 0.562500000000 0.554687500000 0.585937500000 0.578125000000
us_over_2.tga 0.000000000000 0.562500000000 0.023437500000 0.585937500000
us_over_3.tga 0.023437500000 0.562500000000 0.046875000000 0.585937500000
us_over_4.tga 0.046875000000 0.562500000000 0.070312500000 0.585937500000
tb_faction.tga 0.070312500000 0.562500000000 0.093750000000 0.585937500000
tb_team.tga 0.093750000000 0.562500000000 0.117187500000 0.585937500000
w_slot_shortcut_shift_id0.tga 0.117187500000 0.562500000000 0.140625000000 0.585937500000
w_slot_shortcut_shift_id1.tga 0.140625000000 0.562500000000 0.164062500000 0.585937500000
w_slot_shortcut_shift_id2.tga 0.164062500000 0.562500000000 0.187500000000 0.585937500000
w_slot_shortcut_shift_id3.tga 0.187500000000 0.562500000000 0.210937500000 0.585937500000
w_slot_shortcut_shift_id4.tga 0.210937500000 0.562500000000 0.234375000000 0.585937500000
w_slot_shortcut_shift_id5.tga 0.234375000000 0.562500000000 0.257812500000 0.585937500000
w_slot_shortcut_shift_id6.tga 0.257812500000 0.562500000000 0.281250000000 0.585937500000
w_slot_shortcut_shift_id7.tga 0.281250000000 0.562500000000 0.304687500000 0.585937500000
w_slot_shortcut_shift_id8.tga 0.304687500000 0.562500000000 0.328125000000 0.585937500000
w_slot_shortcut_shift_id9.tga 0.328125000000 0.562500000000 0.351562500000 0.585937500000
tb_forum.tga 0.351562500000 0.562500000000 0.375000000000 0.585937500000
ico_ammo_bullet.tga 0.375000000000 0.562500000000 0.398437500000 0.585937500000
mp3.tga 0.398437500000 0.562500000000 0.421875000000 0.585937500000
tb_macros.tga 0.421875000000 0.562500000000 0.445312500000 0.585937500000
tb_keys.tga 0.445312500000 0.562500000000 0.468750000000 0.585937500000
tb_config.tga 0.585937500000 0.570312500000 0.609375000000 0.593750000000
ico_ammo_jacket.tga 0.609375000000 0.570312500000 0.632812500000 0.593750000000
tb_animals.tga 0.632812500000 0.570312500000 0.656250000000 0.593750000000
tb_mail.tga 0.656250000000 0.570312500000 0.679687500000 0.593750000000
tb_guild.tga 0.679687500000 0.570312500000 0.703125000000 0.593750000000
ico_pointe.tga 0.703125000000 0.570312500000 0.726562500000 0.593750000000
bg_downloader.tga 0.726562500000 0.570312500000 0.750000000000 0.593750000000
tb_mode_dodge.tga 0.750000000000 0.570312500000 0.773437500000 0.593750000000
tb_mode_parry.tga 0.773437500000 0.570312500000 0.796875000000 0.593750000000
tb_action_attack.tga 0.796875000000 0.570312500000 0.820312500000 0.593750000000
tb_action_config.tga 0.820312500000 0.570312500000 0.843750000000 0.593750000000
tb_action_disband.tga 0.843750000000 0.570312500000 0.867187500000 0.593750000000
tb_action_disengage.tga 0.867187500000 0.570312500000 0.890625000000 0.593750000000
tb_action_extract.tga 0.890625000000 0.570312500000 0.914062500000 0.593750000000
tb_action_invite.tga 0.914062500000 0.570312500000 0.937500000000 0.593750000000
tb_action_kick.tga 0.937500000000 0.570312500000 0.960937500000 0.593750000000
tb_action_move.tga 0.960937500000 0.570312500000 0.984375000000 0.593750000000
tb_action_run.tga 0.468750000000 0.578125000000 0.492187500000 0.601562500000
tb_action_sit.tga 0.492187500000 0.578125000000 0.515625000000 0.601562500000
tb_action_stand.tga 0.515625000000 0.578125000000 0.539062500000 0.601562500000
tb_action_stop.tga 0.539062500000 0.578125000000 0.562500000000 0.601562500000
tb_action_talk.tga 0.562500000000 0.578125000000 0.585937500000 0.601562500000
tb_action_walk.tga 0.000000000000 0.585937500000 0.023437500000 0.609375000000
tb_desk_1.tga 0.023437500000 0.585937500000 0.046875000000 0.609375000000
tb_desk_2.tga 0.046875000000 0.585937500000 0.070312500000 0.609375000000
tb_desk_3.tga 0.070312500000 0.585937500000 0.093750000000 0.609375000000
tb_desk_4.tga 0.093750000000 0.585937500000 0.117187500000 0.609375000000
tb_over.tga 0.117187500000 0.585937500000 0.140625000000 0.609375000000
tb_support.tga 0.140625000000 0.585937500000 0.164062500000 0.609375000000
tb_windows.tga 0.164062500000 0.585937500000 0.187500000000 0.609375000000
ico_source_knowledge.tga 0.187500000000 0.585937500000 0.208984375000 0.609375000000
small_task_travel.tga 0.984375000000 0.000000000000 1.000000000000 0.015625000000
small_task_fight.tga 0.984375000000 0.015625000000 1.000000000000 0.031250000000
small_task_done.tga 0.984375000000 0.031250000000 1.000000000000 0.046875000000
small_task_forage.tga 0.980468750000 0.046875000000 0.996093750000 0.062500000000
small_task_generic.tga 0.980468750000 0.062500000000 0.996093750000 0.078125000000
small_task_craft.tga 0.976562500000 0.335937500000 0.992187500000 0.351562500000
small_task_failed.tga 0.984375000000 0.406250000000 1.000000000000 0.421875000000
small_task_guild.tga 0.984375000000 0.421875000000 1.000000000000 0.437500000000
small_task_rite.tga 0.984375000000 0.437500000000 1.000000000000 0.453125000000
W_leader.tga 0.984375000000 0.453125000000 0.997070312500 0.464843750000
w_major.tga 0.984375000000 0.464843750000 0.996093750000 0.476562500000
tb_mode.tga 0.984375000000 0.476562500000 0.996093750000 0.488281250000
